@startuml

left to right direction

!ifdef FILENAME
package FILENAME {
!endif

actor UnAuth as unu
actor User as U
actor TTCreator as TC <<User>>
actor TTCoCreator as TCC <<User>>
actor Teacher as TCH <<User>>

U <|-- TC
U <|-- TCC
U <|-- TCH
unu <|-left-- U

unu --> (Login)
package "Shared Actions" {
  (Settings) as settings
  U --down-> settings
  U --> (View Own Timetables)
}

package "TTCreator Actions" {
  (Select Term Version) as SelectVersion
  (Submit Timetable for Publishing) as SubmitPublish
  (Create/Edit Timetable) as EditTT
  TC --> SelectVersion
  TCC --> SelectVersion
  SelectVersion --> EditTT
  EditTT --> SubmitPublish
  note bottom of EditTT
  UC: CreateEditingTT
  end note
}

package "TTCreator-Exclusive Actions" {
  (Resolve Conflits) as Resolve
  (Settings for term) as TermSetting
  TC -> TermSetting
  note right of TermSetting
  Time slots, ...
  end note
  (Import Data) as Import
  TC --> Import

  (Publish Timetables) as Publish
  TC --> Publish
  Import --> Resolve
  note top of Resolve
  UC: TermConflicts
  end note

}

package "Teacher Actions" {
  TCH --> (Select Term Version)
  (Select Term Version) --> (Submit Constraints)
}

!ifdef FILENAME
}
!endif

@enduml
